^F:\COLLEGE\MY THESIS\PROJECT\SCAPER2WINDOWS\SCAPER2\SCAPER2WIN\SRC\COMMON\CIRCULARBUFFER.CPP|F:\COLLEGE\MY THESIS\PROJECT\SCAPER2WINDOWS\SCAPER2\SCAPER2WIN\SRC\COMMON\PCLTOOLS.CPP|F:\COLLEGE\MY THESIS\PROJECT\SCAPER2WINDOWS\SCAPER2\SCAPER2WIN\SRC\COMMON\RATETRACKER.CPP|F:\COLLEGE\MY THESIS\PROJECT\SCAPER2WINDOWS\SCAPER2\SCAPER2WIN\SRC\COMMON\TIMER.CPP|F:\COLLEGE\MY THESIS\PROJECT\SCAPER2WINDOWS\SCAPER2\SCAPER2WIN\SRC\SEGMENTER\EXECUTIONPIPELINE.CPP|F:\COLLEGE\MY THESIS\PROJECT\SCAPER2WINDOWS\SCAPER2\SCAPER2WIN\SRC\SEGMENTER\MAIN.CPP|F:\COLLEGE\MY THESIS\PROJECT\SCAPER2WINDOWS\SCAPER2\SCAPER2WIN\SRC\SEGMENTER\PCLBOUNDARYEXTRACTION.CPP|F:\COLLEGE\MY THESIS\PROJECT\SCAPER2WINDOWS\SCAPER2\SCAPER2WIN\SRC\SEGMENTER\PCLEUCLIDEANSEGMENTER.CPP|F:\COLLEGE\MY THESIS\PROJECT\SCAPER2WINDOWS\SCAPER2\SCAPER2WIN\SRC\SEGMENTER\PCLNORMALCALCULATOR.CPP|F:\COLLEGE\MY THESIS\PROJECT\SCAPER2WINDOWS\SCAPER2\SCAPER2WIN\SRC\SEGMENTER\PCLOBJECT.CPP|F:\COLLEGE\MY THESIS\PROJECT\SCAPER2WINDOWS\SCAPER2\SCAPER2WIN\SRC\SEGMENTER\PCLPLANEMODELSFILTER.CPP|F:\COLLEGE\MY THESIS\PROJECT\SCAPER2WINDOWS\SCAPER2\SCAPER2WIN\SRC\SEGMENTER\PCLSTATISTICALOUTLIERFILTER.CPP|F:\COLLEGE\MY THESIS\PROJECT\SCAPER2WINDOWS\SCAPER2\SCAPER2WIN\SRC\SEGMENTER\POINTCLOUDWITHNORMALS.CPP|F:\COLLEGE\MY THESIS\PROJECT\SCAPER2WINDOWS\SCAPER2\SCAPER2WIN\SRC\SEGMENTER\POSITIONSTATE.CPP|F:\COLLEGE\MY THESIS\PROJECT\SCAPER2WINDOWS\SCAPER2\SCAPER2WIN\SRC\SEGMENTER\RANDOMGENERATOR.CPP|F:\COLLEGE\MY THESIS\PROJECT\SCAPER2WINDOWS\SCAPER2\SCAPER2WIN\SRC\SEGMENTER\UNIFORMDISTRIBUTION.CPP|F:\COLLEGE\MY THESIS\PROJECT\SCAPER2WINDOWS\SCAPER2\SCAPER2WIN\STDAFX.CPP
F:\COLLEGE\MY THESIS\PROJECT\SCAPER2WINDOWS\SCAPER2\SCAPER2WIN\X64\DEBUG\VC140.PDB
F:\COLLEGE\MY THESIS\PROJECT\SCAPER2WINDOWS\SCAPER2\SCAPER2WIN\X64\DEBUG\VC140.IDB
F:\COLLEGE\MY THESIS\PROJECT\SCAPER2WINDOWS\SCAPER2\SCAPER2WIN\X64\DEBUG\CIRCULARBUFFER.OBJ
F:\COLLEGE\MY THESIS\PROJECT\SCAPER2WINDOWS\SCAPER2\SCAPER2WIN\X64\DEBUG\PCLTOOLS.OBJ
F:\COLLEGE\MY THESIS\PROJECT\SCAPER2WINDOWS\SCAPER2\SCAPER2WIN\X64\DEBUG\RATETRACKER.OBJ
F:\COLLEGE\MY THESIS\PROJECT\SCAPER2WINDOWS\SCAPER2\SCAPER2WIN\X64\DEBUG\TIMER.OBJ
F:\COLLEGE\MY THESIS\PROJECT\SCAPER2WINDOWS\SCAPER2\SCAPER2WIN\X64\DEBUG\EXECUTIONPIPELINE.OBJ
F:\COLLEGE\MY THESIS\PROJECT\SCAPER2WINDOWS\SCAPER2\SCAPER2WIN\X64\DEBUG\MAIN.OBJ
F:\COLLEGE\MY THESIS\PROJECT\SCAPER2WINDOWS\SCAPER2\SCAPER2WIN\X64\DEBUG\PCLBOUNDARYEXTRACTION.OBJ
F:\COLLEGE\MY THESIS\PROJECT\SCAPER2WINDOWS\SCAPER2\SCAPER2WIN\X64\DEBUG\PCLEUCLIDEANSEGMENTER.OBJ
F:\COLLEGE\MY THESIS\PROJECT\SCAPER2WINDOWS\SCAPER2\SCAPER2WIN\X64\DEBUG\PCLNORMALCALCULATOR.OBJ
F:\COLLEGE\MY THESIS\PROJECT\SCAPER2WINDOWS\SCAPER2\SCAPER2WIN\X64\DEBUG\PCLOBJECT.OBJ
F:\COLLEGE\MY THESIS\PROJECT\SCAPER2WINDOWS\SCAPER2\SCAPER2WIN\X64\DEBUG\PCLPLANEMODELSFILTER.OBJ
F:\COLLEGE\MY THESIS\PROJECT\SCAPER2WINDOWS\SCAPER2\SCAPER2WIN\X64\DEBUG\PCLSTATISTICALOUTLIERFILTER.OBJ
F:\COLLEGE\MY THESIS\PROJECT\SCAPER2WINDOWS\SCAPER2\SCAPER2WIN\X64\DEBUG\POINTCLOUDWITHNORMALS.OBJ
F:\COLLEGE\MY THESIS\PROJECT\SCAPER2WINDOWS\SCAPER2\SCAPER2WIN\X64\DEBUG\POSITIONSTATE.OBJ
F:\COLLEGE\MY THESIS\PROJECT\SCAPER2WINDOWS\SCAPER2\SCAPER2WIN\X64\DEBUG\RANDOMGENERATOR.OBJ
F:\COLLEGE\MY THESIS\PROJECT\SCAPER2WINDOWS\SCAPER2\SCAPER2WIN\X64\DEBUG\UNIFORMDISTRIBUTION.OBJ
F:\COLLEGE\MY THESIS\PROJECT\SCAPER2WINDOWS\SCAPER2\SCAPER2WIN\X64\DEBUG\STDAFX.OBJ
^F:\COLLEGE\MY THESIS\PROJECT\SCAPER2WINDOWS\SCAPER2\SCAPER2WIN\SRC\COMMON\CIRCULARBUFFER.CPP
F:\COLLEGE\MY THESIS\PROJECT\SCAPER2WINDOWS\SCAPER2\SCAPER2WIN\X64\DEBUG\VC140.PDB
^F:\COLLEGE\MY THESIS\PROJECT\SCAPER2WINDOWS\SCAPER2\SCAPER2WIN\SRC\COMMON\PCLTOOLS.CPP
F:\COLLEGE\MY THESIS\PROJECT\SCAPER2WINDOWS\SCAPER2\SCAPER2WIN\X64\DEBUG\VC140.PDB
^F:\COLLEGE\MY THESIS\PROJECT\SCAPER2WINDOWS\SCAPER2\SCAPER2WIN\SRC\COMMON\RATETRACKER.CPP
F:\COLLEGE\MY THESIS\PROJECT\SCAPER2WINDOWS\SCAPER2\SCAPER2WIN\X64\DEBUG\VC140.PDB
^F:\COLLEGE\MY THESIS\PROJECT\SCAPER2WINDOWS\SCAPER2\SCAPER2WIN\SRC\COMMON\TIMER.CPP
F:\COLLEGE\MY THESIS\PROJECT\SCAPER2WINDOWS\SCAPER2\SCAPER2WIN\X64\DEBUG\VC140.PDB
^F:\COLLEGE\MY THESIS\PROJECT\SCAPER2WINDOWS\SCAPER2\SCAPER2WIN\SRC\SEGMENTER\EXECUTIONPIPELINE.CPP
F:\COLLEGE\MY THESIS\PROJECT\SCAPER2WINDOWS\SCAPER2\SCAPER2WIN\X64\DEBUG\VC140.PDB
^F:\COLLEGE\MY THESIS\PROJECT\SCAPER2WINDOWS\SCAPER2\SCAPER2WIN\SRC\SEGMENTER\MAIN.CPP
F:\COLLEGE\MY THESIS\PROJECT\SCAPER2WINDOWS\SCAPER2\SCAPER2WIN\X64\DEBUG\VC140.PDB
F:\COLLEGE\MY THESIS\PROJECT\SCAPER2WINDOWS\SCAPER2\SCAPER2WIN\X64\DEBUG\VC140.IDB
F:\COLLEGE\MY THESIS\PROJECT\SCAPER2WINDOWS\SCAPER2\SCAPER2WIN\X64\DEBUG\MAIN.OBJ
^F:\COLLEGE\MY THESIS\PROJECT\SCAPER2WINDOWS\SCAPER2\SCAPER2WIN\SRC\SEGMENTER\PCLBOUNDARYEXTRACTION.CPP
F:\COLLEGE\MY THESIS\PROJECT\SCAPER2WINDOWS\SCAPER2\SCAPER2WIN\X64\DEBUG\VC140.PDB
^F:\COLLEGE\MY THESIS\PROJECT\SCAPER2WINDOWS\SCAPER2\SCAPER2WIN\SRC\SEGMENTER\PCLEUCLIDEANSEGMENTER.CPP
F:\COLLEGE\MY THESIS\PROJECT\SCAPER2WINDOWS\SCAPER2\SCAPER2WIN\X64\DEBUG\VC140.PDB
^F:\COLLEGE\MY THESIS\PROJECT\SCAPER2WINDOWS\SCAPER2\SCAPER2WIN\SRC\SEGMENTER\PCLNORMALCALCULATOR.CPP
F:\COLLEGE\MY THESIS\PROJECT\SCAPER2WINDOWS\SCAPER2\SCAPER2WIN\X64\DEBUG\VC140.PDB
^F:\COLLEGE\MY THESIS\PROJECT\SCAPER2WINDOWS\SCAPER2\SCAPER2WIN\SRC\SEGMENTER\PCLOBJECT.CPP
F:\COLLEGE\MY THESIS\PROJECT\SCAPER2WINDOWS\SCAPER2\SCAPER2WIN\X64\DEBUG\VC140.PDB
^F:\COLLEGE\MY THESIS\PROJECT\SCAPER2WINDOWS\SCAPER2\SCAPER2WIN\SRC\SEGMENTER\PCLPLANEMODELSFILTER.CPP
F:\COLLEGE\MY THESIS\PROJECT\SCAPER2WINDOWS\SCAPER2\SCAPER2WIN\X64\DEBUG\VC140.PDB
^F:\COLLEGE\MY THESIS\PROJECT\SCAPER2WINDOWS\SCAPER2\SCAPER2WIN\SRC\SEGMENTER\PCLSTATISTICALOUTLIERFILTER.CPP
F:\COLLEGE\MY THESIS\PROJECT\SCAPER2WINDOWS\SCAPER2\SCAPER2WIN\X64\DEBUG\VC140.PDB
^F:\COLLEGE\MY THESIS\PROJECT\SCAPER2WINDOWS\SCAPER2\SCAPER2WIN\SRC\SEGMENTER\POINTCLOUDWITHNORMALS.CPP
F:\COLLEGE\MY THESIS\PROJECT\SCAPER2WINDOWS\SCAPER2\SCAPER2WIN\X64\DEBUG\VC140.PDB
^F:\COLLEGE\MY THESIS\PROJECT\SCAPER2WINDOWS\SCAPER2\SCAPER2WIN\SRC\SEGMENTER\POSITIONSTATE.CPP
F:\COLLEGE\MY THESIS\PROJECT\SCAPER2WINDOWS\SCAPER2\SCAPER2WIN\X64\DEBUG\VC140.PDB
^F:\COLLEGE\MY THESIS\PROJECT\SCAPER2WINDOWS\SCAPER2\SCAPER2WIN\SRC\SEGMENTER\RANDOMGENERATOR.CPP
F:\COLLEGE\MY THESIS\PROJECT\SCAPER2WINDOWS\SCAPER2\SCAPER2WIN\X64\DEBUG\VC140.PDB
^F:\COLLEGE\MY THESIS\PROJECT\SCAPER2WINDOWS\SCAPER2\SCAPER2WIN\SRC\SEGMENTER\UNIFORMDISTRIBUTION.CPP
F:\COLLEGE\MY THESIS\PROJECT\SCAPER2WINDOWS\SCAPER2\SCAPER2WIN\X64\DEBUG\VC140.PDB
^F:\COLLEGE\MY THESIS\PROJECT\SCAPER2WINDOWS\SCAPER2\SCAPER2WIN\STDAFX.CPP
F:\COLLEGE\MY THESIS\PROJECT\SCAPER2WINDOWS\SCAPER2\SCAPER2WIN\X64\DEBUG\VC140.PDB
^F:\COLLEGE\MY THESIS\PROJECT\SCAPER2WINDOWS\SCAPER2\SCAPER2WIN\STDAFX.CPP|F:\COLLEGE\MY THESIS\PROJECT\SCAPER2WINDOWS\SCAPER2\SRC\COMMON\CIRCULARBUFFER.CPP|F:\COLLEGE\MY THESIS\PROJECT\SCAPER2WINDOWS\SCAPER2\SRC\COMMON\PCLTOOLS.CPP|F:\COLLEGE\MY THESIS\PROJECT\SCAPER2WINDOWS\SCAPER2\SRC\COMMON\RATETRACKER.CPP|F:\COLLEGE\MY THESIS\PROJECT\SCAPER2WINDOWS\SCAPER2\SRC\COMMON\TIMER.CPP|F:\COLLEGE\MY THESIS\PROJECT\SCAPER2WINDOWS\SCAPER2\SRC\DRIVER\DEPTH_SENSE_GRABBER.CPP|F:\COLLEGE\MY THESIS\PROJECT\SCAPER2WINDOWS\SCAPER2\SRC\SEGMENTER\EXECUTIONPIPELINE.CPP|F:\COLLEGE\MY THESIS\PROJECT\SCAPER2WINDOWS\SCAPER2\SRC\SEGMENTER\MAIN.CPP|F:\COLLEGE\MY THESIS\PROJECT\SCAPER2WINDOWS\SCAPER2\SRC\SEGMENTER\PCLBOUNDARYEXTRACTION.CPP|F:\COLLEGE\MY THESIS\PROJECT\SCAPER2WINDOWS\SCAPER2\SRC\SEGMENTER\PCLEUCLIDEANSEGMENTER.CPP|F:\COLLEGE\MY THESIS\PROJECT\SCAPER2WINDOWS\SCAPER2\SRC\SEGMENTER\PCLNORMALCALCULATOR.CPP|F:\COLLEGE\MY THESIS\PROJECT\SCAPER2WINDOWS\SCAPER2\SRC\SEGMENTER\PCLOBJECT.CPP|F:\COLLEGE\MY THESIS\PROJECT\SCAPER2WINDOWS\SCAPER2\SRC\SEGMENTER\PCLPLANEMODELSFILTER.CPP|F:\COLLEGE\MY THESIS\PROJECT\SCAPER2WINDOWS\SCAPER2\SRC\SEGMENTER\PCLSTATISTICALOUTLIERFILTER.CPP|F:\COLLEGE\MY THESIS\PROJECT\SCAPER2WINDOWS\SCAPER2\SRC\SEGMENTER\POINTCLOUDWITHNORMALS.CPP|F:\COLLEGE\MY THESIS\PROJECT\SCAPER2WINDOWS\SCAPER2\SRC\SEGMENTER\POSITIONSTATE.CPP|F:\COLLEGE\MY THESIS\PROJECT\SCAPER2WINDOWS\SCAPER2\SRC\SEGMENTER\RANDOMGENERATOR.CPP|F:\COLLEGE\MY THESIS\PROJECT\SCAPER2WINDOWS\SCAPER2\SRC\SEGMENTER\UNIFORMDISTRIBUTION.CPP
F:\COLLEGE\MY THESIS\PROJECT\SCAPER2WINDOWS\SCAPER2\SCAPER2WIN\X64\DEBUG\VC140.PDB
F:\COLLEGE\MY THESIS\PROJECT\SCAPER2WINDOWS\SCAPER2\SCAPER2WIN\X64\DEBUG\VC140.IDB
F:\COLLEGE\MY THESIS\PROJECT\SCAPER2WINDOWS\SCAPER2\SCAPER2WIN\X64\DEBUG\CIRCULARBUFFER.OBJ
F:\COLLEGE\MY THESIS\PROJECT\SCAPER2WINDOWS\SCAPER2\SCAPER2WIN\X64\DEBUG\PCLTOOLS.OBJ
F:\COLLEGE\MY THESIS\PROJECT\SCAPER2WINDOWS\SCAPER2\SCAPER2WIN\X64\DEBUG\RATETRACKER.OBJ
F:\COLLEGE\MY THESIS\PROJECT\SCAPER2WINDOWS\SCAPER2\SCAPER2WIN\X64\DEBUG\TIMER.OBJ
F:\COLLEGE\MY THESIS\PROJECT\SCAPER2WINDOWS\SCAPER2\SCAPER2WIN\X64\DEBUG\EXECUTIONPIPELINE.OBJ
F:\COLLEGE\MY THESIS\PROJECT\SCAPER2WINDOWS\SCAPER2\SCAPER2WIN\X64\DEBUG\PCLBOUNDARYEXTRACTION.OBJ
F:\COLLEGE\MY THESIS\PROJECT\SCAPER2WINDOWS\SCAPER2\SCAPER2WIN\X64\DEBUG\PCLEUCLIDEANSEGMENTER.OBJ
F:\COLLEGE\MY THESIS\PROJECT\SCAPER2WINDOWS\SCAPER2\SCAPER2WIN\X64\DEBUG\PCLNORMALCALCULATOR.OBJ
F:\COLLEGE\MY THESIS\PROJECT\SCAPER2WINDOWS\SCAPER2\SCAPER2WIN\X64\DEBUG\PCLOBJECT.OBJ
F:\COLLEGE\MY THESIS\PROJECT\SCAPER2WINDOWS\SCAPER2\SCAPER2WIN\X64\DEBUG\PCLPLANEMODELSFILTER.OBJ
F:\COLLEGE\MY THESIS\PROJECT\SCAPER2WINDOWS\SCAPER2\SCAPER2WIN\X64\DEBUG\PCLSTATISTICALOUTLIERFILTER.OBJ
F:\COLLEGE\MY THESIS\PROJECT\SCAPER2WINDOWS\SCAPER2\SCAPER2WIN\X64\DEBUG\POINTCLOUDWITHNORMALS.OBJ
F:\COLLEGE\MY THESIS\PROJECT\SCAPER2WINDOWS\SCAPER2\SCAPER2WIN\X64\DEBUG\POSITIONSTATE.OBJ
F:\COLLEGE\MY THESIS\PROJECT\SCAPER2WINDOWS\SCAPER2\SCAPER2WIN\X64\DEBUG\RANDOMGENERATOR.OBJ
F:\COLLEGE\MY THESIS\PROJECT\SCAPER2WINDOWS\SCAPER2\SCAPER2WIN\X64\DEBUG\UNIFORMDISTRIBUTION.OBJ
F:\COLLEGE\MY THESIS\PROJECT\SCAPER2WINDOWS\SCAPER2\SCAPER2WIN\X64\DEBUG\STDAFX.OBJ
F:\COLLEGE\MY THESIS\PROJECT\SCAPER2WINDOWS\SCAPER2\SCAPER2WIN\X64\DEBUG\MAIN.OBJ
^F:\COLLEGE\MY THESIS\PROJECT\SCAPER2WINDOWS\SCAPER2\SRC\COMMON\CIRCULARBUFFER.CPP
F:\COLLEGE\MY THESIS\PROJECT\SCAPER2WINDOWS\SCAPER2\SCAPER2WIN\X64\DEBUG\VC140.PDB
^F:\COLLEGE\MY THESIS\PROJECT\SCAPER2WINDOWS\SCAPER2\SRC\COMMON\PCLTOOLS.CPP
F:\COLLEGE\MY THESIS\PROJECT\SCAPER2WINDOWS\SCAPER2\SCAPER2WIN\X64\DEBUG\VC140.PDB
^F:\COLLEGE\MY THESIS\PROJECT\SCAPER2WINDOWS\SCAPER2\SRC\COMMON\RATETRACKER.CPP
F:\COLLEGE\MY THESIS\PROJECT\SCAPER2WINDOWS\SCAPER2\SCAPER2WIN\X64\DEBUG\VC140.PDB
^F:\COLLEGE\MY THESIS\PROJECT\SCAPER2WINDOWS\SCAPER2\SRC\COMMON\TIMER.CPP
F:\COLLEGE\MY THESIS\PROJECT\SCAPER2WINDOWS\SCAPER2\SCAPER2WIN\X64\DEBUG\VC140.PDB
^F:\COLLEGE\MY THESIS\PROJECT\SCAPER2WINDOWS\SCAPER2\SRC\DRIVER\DEPTH_SENSE_GRABBER.CPP
F:\COLLEGE\MY THESIS\PROJECT\SCAPER2WINDOWS\SCAPER2\SCAPER2WIN\X64\DEBUG\VC140.PDB
F:\COLLEGE\MY THESIS\PROJECT\SCAPER2WINDOWS\SCAPER2\SCAPER2WIN\X64\DEBUG\VC140.IDB
F:\COLLEGE\MY THESIS\PROJECT\SCAPER2WINDOWS\SCAPER2\SCAPER2WIN\X64\DEBUG\DEPTH_SENSE_GRABBER.OBJ
^F:\COLLEGE\MY THESIS\PROJECT\SCAPER2WINDOWS\SCAPER2\SRC\SEGMENTER\EXECUTIONPIPELINE.CPP
F:\COLLEGE\MY THESIS\PROJECT\SCAPER2WINDOWS\SCAPER2\SCAPER2WIN\X64\DEBUG\VC140.PDB
^F:\COLLEGE\MY THESIS\PROJECT\SCAPER2WINDOWS\SCAPER2\SRC\SEGMENTER\MAIN.CPP
F:\COLLEGE\MY THESIS\PROJECT\SCAPER2WINDOWS\SCAPER2\SCAPER2WIN\X64\DEBUG\VC140.PDB
^F:\COLLEGE\MY THESIS\PROJECT\SCAPER2WINDOWS\SCAPER2\SRC\SEGMENTER\PCLBOUNDARYEXTRACTION.CPP
F:\COLLEGE\MY THESIS\PROJECT\SCAPER2WINDOWS\SCAPER2\SCAPER2WIN\X64\DEBUG\VC140.PDB
^F:\COLLEGE\MY THESIS\PROJECT\SCAPER2WINDOWS\SCAPER2\SRC\SEGMENTER\PCLEUCLIDEANSEGMENTER.CPP
F:\COLLEGE\MY THESIS\PROJECT\SCAPER2WINDOWS\SCAPER2\SCAPER2WIN\X64\DEBUG\VC140.PDB
^F:\COLLEGE\MY THESIS\PROJECT\SCAPER2WINDOWS\SCAPER2\SRC\SEGMENTER\PCLNORMALCALCULATOR.CPP
F:\COLLEGE\MY THESIS\PROJECT\SCAPER2WINDOWS\SCAPER2\SCAPER2WIN\X64\DEBUG\VC140.PDB
^F:\COLLEGE\MY THESIS\PROJECT\SCAPER2WINDOWS\SCAPER2\SRC\SEGMENTER\PCLOBJECT.CPP
F:\COLLEGE\MY THESIS\PROJECT\SCAPER2WINDOWS\SCAPER2\SCAPER2WIN\X64\DEBUG\VC140.PDB
^F:\COLLEGE\MY THESIS\PROJECT\SCAPER2WINDOWS\SCAPER2\SRC\SEGMENTER\PCLPLANEMODELSFILTER.CPP
F:\COLLEGE\MY THESIS\PROJECT\SCAPER2WINDOWS\SCAPER2\SCAPER2WIN\X64\DEBUG\VC140.PDB
^F:\COLLEGE\MY THESIS\PROJECT\SCAPER2WINDOWS\SCAPER2\SRC\SEGMENTER\PCLSTATISTICALOUTLIERFILTER.CPP
F:\COLLEGE\MY THESIS\PROJECT\SCAPER2WINDOWS\SCAPER2\SCAPER2WIN\X64\DEBUG\VC140.PDB
^F:\COLLEGE\MY THESIS\PROJECT\SCAPER2WINDOWS\SCAPER2\SRC\SEGMENTER\POINTCLOUDWITHNORMALS.CPP
F:\COLLEGE\MY THESIS\PROJECT\SCAPER2WINDOWS\SCAPER2\SCAPER2WIN\X64\DEBUG\VC140.PDB
^F:\COLLEGE\MY THESIS\PROJECT\SCAPER2WINDOWS\SCAPER2\SRC\SEGMENTER\POSITIONSTATE.CPP
F:\COLLEGE\MY THESIS\PROJECT\SCAPER2WINDOWS\SCAPER2\SCAPER2WIN\X64\DEBUG\VC140.PDB
^F:\COLLEGE\MY THESIS\PROJECT\SCAPER2WINDOWS\SCAPER2\SRC\SEGMENTER\RANDOMGENERATOR.CPP
F:\COLLEGE\MY THESIS\PROJECT\SCAPER2WINDOWS\SCAPER2\SCAPER2WIN\X64\DEBUG\VC140.PDB
^F:\COLLEGE\MY THESIS\PROJECT\SCAPER2WINDOWS\SCAPER2\SRC\SEGMENTER\UNIFORMDISTRIBUTION.CPP
F:\COLLEGE\MY THESIS\PROJECT\SCAPER2WINDOWS\SCAPER2\SCAPER2WIN\X64\DEBUG\VC140.PDB
^F:\COLLEGE\MY THESIS\PROJECT\SCAPER2WINDOWS\SCAPER2\SRC\DRIVER\DEPTH_SENSE_GRABBER.CPP|F:\COLLEGE\MY THESIS\PROJECT\SCAPER2WINDOWS\SCAPER2\SRC\SEGMENTER\MAIN.CPP
F:\COLLEGE\MY THESIS\PROJECT\SCAPER2WINDOWS\SCAPER2\SCAPER2WIN\X64\DEBUG\VC140.PDB
F:\COLLEGE\MY THESIS\PROJECT\SCAPER2WINDOWS\SCAPER2\SCAPER2WIN\X64\DEBUG\VC140.IDB
F:\COLLEGE\MY THESIS\PROJECT\SCAPER2WINDOWS\SCAPER2\SCAPER2WIN\X64\DEBUG\MAIN.OBJ
^F:\COLLEGE\MY THESIS\PROJECT\SCAPER2WINDOWS\SCAPER2\SRC\DRIVER\IMPL\DEPTH_SENSE_GRABBER_IMPL.CPP
F:\COLLEGE\MY THESIS\PROJECT\SCAPER2WINDOWS\SCAPER2\SCAPER2WIN\X64\DEBUG\VC140.PDB
F:\COLLEGE\MY THESIS\PROJECT\SCAPER2WINDOWS\SCAPER2\SCAPER2WIN\X64\DEBUG\VC140.IDB
F:\COLLEGE\MY THESIS\PROJECT\SCAPER2WINDOWS\SCAPER2\SCAPER2WIN\X64\DEBUG\DEPTH_SENSE_GRABBER_IMPL.OBJ
^F:\COLLEGE\MY THESIS\PROJECT\SCAPER2WINDOWS\SCAPER2\SRC\DRIVER\IMPL\DEPTH_SENSE_DEVICE_MANAGER.CPP
F:\COLLEGE\MY THESIS\PROJECT\SCAPER2WINDOWS\SCAPER2\SCAPER2WIN\X64\DEBUG\VC140.PDB
F:\COLLEGE\MY THESIS\PROJECT\SCAPER2WINDOWS\SCAPER2\SCAPER2WIN\X64\DEBUG\VC140.IDB
F:\COLLEGE\MY THESIS\PROJECT\SCAPER2WINDOWS\SCAPER2\SCAPER2WIN\X64\DEBUG\DEPTH_SENSE_DEVICE_MANAGER.OBJ
^F:\COLLEGE\MY THESIS\PROJECT\SCAPER2WINDOWS\SCAPER2\SRC\DRIVER\IO_EXCEPTION.CPP
F:\COLLEGE\MY THESIS\PROJECT\SCAPER2WINDOWS\SCAPER2\SCAPER2WIN\X64\DEBUG\VC140.PDB
F:\COLLEGE\MY THESIS\PROJECT\SCAPER2WINDOWS\SCAPER2\SCAPER2WIN\X64\DEBUG\VC140.IDB
F:\COLLEGE\MY THESIS\PROJECT\SCAPER2WINDOWS\SCAPER2\SCAPER2WIN\X64\DEBUG\IO_EXCEPTION.OBJ
^F:\COLLEGE\MY THESIS\PROJECT\SCAPER2WINDOWS\SCAPER2\SCAPER2WIN\STDAFX.CPP|F:\COLLEGE\MY THESIS\PROJECT\SCAPER2WINDOWS\SCAPER2\SRC\COMMON\PCLTOOLS.CPP|F:\COLLEGE\MY THESIS\PROJECT\SCAPER2WINDOWS\SCAPER2\SRC\SEGMENTER\EXECUTIONPIPELINE.CPP|F:\COLLEGE\MY THESIS\PROJECT\SCAPER2WINDOWS\SCAPER2\SRC\SEGMENTER\MAIN.CPP|F:\COLLEGE\MY THESIS\PROJECT\SCAPER2WINDOWS\SCAPER2\SRC\SEGMENTER\PCLEUCLIDEANSEGMENTER.CPP|F:\COLLEGE\MY THESIS\PROJECT\SCAPER2WINDOWS\SCAPER2\SRC\SEGMENTER\PCLNORMALCALCULATOR.CPP|F:\COLLEGE\MY THESIS\PROJECT\SCAPER2WINDOWS\SCAPER2\SRC\SEGMENTER\PCLOBJECT.CPP|F:\COLLEGE\MY THESIS\PROJECT\SCAPER2WINDOWS\SCAPER2\SRC\SEGMENTER\PCLPLANEMODELSFILTER.CPP|F:\COLLEGE\MY THESIS\PROJECT\SCAPER2WINDOWS\SCAPER2\SRC\SEGMENTER\PCLSTATISTICALOUTLIERFILTER.CPP|F:\COLLEGE\MY THESIS\PROJECT\SCAPER2WINDOWS\SCAPER2\SRC\SEGMENTER\UNIFORMDISTRIBUTION.CPP
F:\COLLEGE\MY THESIS\PROJECT\SCAPER2WINDOWS\SCAPER2\SCAPER2WIN\X64\DEBUG\VC140.PDB
F:\COLLEGE\MY THESIS\PROJECT\SCAPER2WINDOWS\SCAPER2\SCAPER2WIN\X64\DEBUG\VC140.IDB
F:\COLLEGE\MY THESIS\PROJECT\SCAPER2WINDOWS\SCAPER2\SCAPER2WIN\X64\DEBUG\PCLTOOLS.OBJ
F:\COLLEGE\MY THESIS\PROJECT\SCAPER2WINDOWS\SCAPER2\SCAPER2WIN\X64\DEBUG\PCLNORMALCALCULATOR.OBJ
F:\COLLEGE\MY THESIS\PROJECT\SCAPER2WINDOWS\SCAPER2\SCAPER2WIN\X64\DEBUG\PCLOBJECT.OBJ
F:\COLLEGE\MY THESIS\PROJECT\SCAPER2WINDOWS\SCAPER2\SCAPER2WIN\X64\DEBUG\PCLPLANEMODELSFILTER.OBJ
F:\COLLEGE\MY THESIS\PROJECT\SCAPER2WINDOWS\SCAPER2\SCAPER2WIN\X64\DEBUG\PCLSTATISTICALOUTLIERFILTER.OBJ
F:\COLLEGE\MY THESIS\PROJECT\SCAPER2WINDOWS\SCAPER2\SCAPER2WIN\X64\DEBUG\UNIFORMDISTRIBUTION.OBJ
F:\COLLEGE\MY THESIS\PROJECT\SCAPER2WINDOWS\SCAPER2\SCAPER2WIN\X64\DEBUG\MAIN.OBJ
F:\COLLEGE\MY THESIS\PROJECT\SCAPER2WINDOWS\SCAPER2\SCAPER2WIN\X64\DEBUG\PCLEUCLIDEANSEGMENTER.OBJ
^F:\COLLEGE\MY THESIS\PROJECT\SCAPER2WINDOWS\SCAPER2\SCAPER2WIN\STDAFX.CPP|F:\COLLEGE\MY THESIS\PROJECT\SCAPER2WINDOWS\SCAPER2\SRC\DRIVER\DEPTH_SENSE_GRABBER.CPP|F:\COLLEGE\MY THESIS\PROJECT\SCAPER2WINDOWS\SCAPER2\SRC\DRIVER\IMPL\DEPTH_SENSE_DEVICE_MANAGER.CPP|F:\COLLEGE\MY THESIS\PROJECT\SCAPER2WINDOWS\SCAPER2\SRC\DRIVER\IMPL\DEPTH_SENSE_GRABBER_IMPL.CPP|F:\COLLEGE\MY THESIS\PROJECT\SCAPER2WINDOWS\SCAPER2\SRC\DRIVER\IO_EXCEPTION.CPP|F:\COLLEGE\MY THESIS\PROJECT\SCAPER2WINDOWS\SCAPER2\SRC\SEGMENTER\EXECUTIONPIPELINE.CPP|F:\COLLEGE\MY THESIS\PROJECT\SCAPER2WINDOWS\SCAPER2\SRC\SEGMENTER\MAIN.CPP|F:\COLLEGE\MY THESIS\PROJECT\SCAPER2WINDOWS\SCAPER2\SRC\SEGMENTER\PCLEUCLIDEANSEGMENTER.CPP|F:\COLLEGE\MY THESIS\PROJECT\SCAPER2WINDOWS\SCAPER2\SRC\SEGMENTER\PCLNORMALCALCULATOR.CPP
F:\COLLEGE\MY THESIS\PROJECT\SCAPER2WINDOWS\SCAPER2\SCAPER2WIN\X64\DEBUG\VC140.PDB
F:\COLLEGE\MY THESIS\PROJECT\SCAPER2WINDOWS\SCAPER2\SCAPER2WIN\X64\DEBUG\VC140.IDB
F:\COLLEGE\MY THESIS\PROJECT\SCAPER2WINDOWS\SCAPER2\SCAPER2WIN\X64\DEBUG\EXECUTIONPIPELINE.OBJ
F:\COLLEGE\MY THESIS\PROJECT\SCAPER2WINDOWS\SCAPER2\SCAPER2WIN\X64\DEBUG\PCLEUCLIDEANSEGMENTER.OBJ
F:\COLLEGE\MY THESIS\PROJECT\SCAPER2WINDOWS\SCAPER2\SCAPER2WIN\X64\DEBUG\PCLNORMALCALCULATOR.OBJ
