^F:\COLLEGE\MY THESIS\PROJECT\SCAPER2WINDOWS\SCAPER2\SCAPER2WRAPPER\X64\DEBUG\.NETFRAMEWORK,VERSION=V4.5.2.ASSEMBLYATTRIBUTES.OBJ|F:\COLLEGE\MY THESIS\PROJECT\SCAPER2WINDOWS\SCAPER2\SCAPER2WRAPPER\X64\DEBUG\APP.RES|F:\COLLEGE\MY THESIS\PROJECT\SCAPER2WINDOWS\SCAPER2\SCAPER2WRAPPER\X64\DEBUG\ASSEMBLYINFO.OBJ|F:\COLLEGE\MY THESIS\PROJECT\SCAPER2WINDOWS\SCAPER2\SCAPER2WRAPPER\X64\DEBUG\SCAPER2WRAPPER.OBJ|F:\COLLEGE\MY THESIS\PROJECT\SCAPER2WINDOWS\SCAPER2\SCAPER2WRAPPER\X64\DEBUG\STDAFX.OBJ|F:\COLLEGE\MY THESIS\PROJECT\SCAPER2WINDOWS\SCAPER2\X64\DEBUG\SCAPER2LIB.LIB
F:\COLLEGE\MY THESIS\PROJECT\SCAPER2WINDOWS\SCAPER2\X64\DEBUG\SCAPER2WRAPPER.DLL
F:\COLLEGE\MY THESIS\PROJECT\SCAPER2WINDOWS\SCAPER2\X64\DEBUG\SCAPER2WRAPPER.PDB
